<?xml version="1.0" encoding="UTF-8" standalone="no"?>
<!-- Created with Inkscape (http://www.inkscape.org/) -->

<svg
   xmlns:dc="http://purl.org/dc/elements/1.1/"
   xmlns:cc="http://creativecommons.org/ns#"
   xmlns:rdf="http://www.w3.org/1999/02/22-rdf-syntax-ns#"
   xmlns:svg="http://www.w3.org/2000/svg"
   xmlns="http://www.w3.org/2000/svg"
   xmlns:sodipodi="http://sodipodi.sourceforge.net/DTD/sodipodi-0.dtd"
   xmlns:inkscape="http://www.inkscape.org/namespaces/inkscape"
   width="600"
   height="600"
   viewBox="0 0 599.99995 599.99996"
   id="svg3670"
   version="1.1"
   inkscape:version="0.91 r13725"
   sodipodi:docname="camus-worktype-private-banner.svg">
  <defs
     id="defs3672" />
  <sodipodi:namedview
     id="base"
     pagecolor="#ffffff"
     bordercolor="#666666"
     borderopacity="1.0"
     inkscape:pageopacity="0.0"
     inkscape:pageshadow="2"
     inkscape:zoom="1.979899"
     inkscape:cx="597.79667"
     inkscape:cy="360.18775"
     inkscape:document-units="px"
     inkscape:current-layer="Layer_6"
     showgrid="false"
     units="px"
     inkscape:window-width="3840"
     inkscape:window-height="2109"
     inkscape:window-x="0"
     inkscape:window-y="0"
     inkscape:window-maximized="1" />
  <metadata
     id="metadata3675">
    <rdf:RDF>
      <cc:Work
         rdf:about="">
        <dc:format>image/svg+xml</dc:format>
        <dc:type
           rdf:resource="http://purl.org/dc/dcmitype/StillImage" />
        <dc:title></dc:title>
      </cc:Work>
    </rdf:RDF>
  </metadata>
  <g
     inkscape:label="Layer 1"
     inkscape:groupmode="layer"
     id="layer1"
     transform="translate(0,-452.36217)">
    <g
       transform="translate(-56.045679,235.39416)"
       id="Layer_6">
      <g
         id="g53"
         transform="translate(25.253815,213.64722)">
        <line
           style="fill:none;stroke:#99cccc;stroke-width:0.1;stroke-miterlimit:10"
           stroke-miterlimit="10"
           x1="325.13501"
           y1="259.646"
           x2="343.52802"
           y2="47.916"
           id="line55" />
        <line
           style="fill:none;stroke:#99cccc;stroke-width:0.1;stroke-miterlimit:10"
           stroke-miterlimit="10"
           x1="325.13501"
           y1="259.646"
           x2="480.06601"
           y2="124.997"
           id="line57" />
        <line
           style="fill:none;stroke:#99cccc;stroke-width:0.1;stroke-miterlimit:10"
           stroke-miterlimit="10"
           x1="325.13501"
           y1="259.646"
           x2="84.141998"
           y2="370.72501"
           id="line59" />
        <line
           style="fill:none;stroke:#99cccc;stroke-width:0.1;stroke-miterlimit:10"
           stroke-miterlimit="10"
           x1="325.13501"
           y1="259.646"
           x2="536.39502"
           y2="147.34"
           id="line61" />
        <line
           style="fill:none;stroke:#99cccc;stroke-width:0.1;stroke-miterlimit:10"
           stroke-miterlimit="10"
           x1="325.13501"
           y1="259.646"
           x2="536.12903"
           y2="229.655"
           id="line63" />
        <line
           style="fill:none;stroke:#99cccc;stroke-width:0.1;stroke-miterlimit:10"
           stroke-miterlimit="10"
           x1="325.13501"
           y1="259.646"
           x2="553.87701"
           y2="224.22501"
           id="line65" />
        <line
           style="fill:none;stroke:#99cccc;stroke-width:0.1;stroke-miterlimit:10"
           stroke-miterlimit="10"
           x1="325.13501"
           y1="259.646"
           x2="567.70697"
           y2="274.427"
           id="line67" />
        <line
           style="fill:none;stroke:#99cccc;stroke-width:0.1;stroke-miterlimit:10"
           stroke-miterlimit="10"
           x1="325.13501"
           y1="259.646"
           x2="483.19699"
           y2="425.27399"
           id="line69" />
        <line
           style="fill:none;stroke:#99cccc;stroke-width:0.1;stroke-miterlimit:10"
           stroke-miterlimit="10"
           x1="325.13501"
           y1="259.646"
           x2="580.67999"
           y2="272.73901"
           id="line71" />
        <line
           style="fill:none;stroke:#a7bae0;stroke-width:0.1;stroke-miterlimit:10"
           stroke-miterlimit="10"
           x1="325.13501"
           y1="259.646"
           x2="530.41998"
           y2="369.61499"
           id="line73" />
        <line
           style="fill:none;stroke:#99cccc;stroke-width:0.1;stroke-miterlimit:10"
           stroke-miterlimit="10"
           x1="325.13501"
           y1="259.646"
           x2="523.15802"
           y2="421.43201"
           id="line75" />
        <line
           style="fill:none;stroke:#99cccc;stroke-width:0.1;stroke-miterlimit:10"
           stroke-miterlimit="10"
           x1="325.13501"
           y1="259.646"
           x2="360.23001"
           y2="511.987"
           id="line77" />
        <line
           style="fill:none;stroke:#99cccc;stroke-width:0.1;stroke-miterlimit:10"
           stroke-miterlimit="10"
           x1="325.13501"
           y1="259.646"
           x2="415.41199"
           y2="531.46503"
           id="line79" />
        <line
           style="fill:none;stroke:#99cccc;stroke-width:0.1;stroke-miterlimit:10"
           stroke-miterlimit="10"
           x1="325.13501"
           y1="259.646"
           x2="580.03497"
           y2="298.56601"
           id="line81" />
        <line
           style="fill:none;stroke:#a7bae0;stroke-width:0.1;stroke-miterlimit:10"
           stroke-miterlimit="10"
           x1="337.358"
           y1="264.492"
           x2="515.13898"
           y2="127.422"
           id="line83" />
        <line
           style="fill:none;stroke:#a7bae0;stroke-width:0.1;stroke-miterlimit:10"
           stroke-miterlimit="10"
           x1="337.358"
           y1="264.492"
           x2="84.141998"
           y2="370.72501"
           id="line85" />
        <line
           style="fill:none;stroke:#a7bae0;stroke-width:0.1;stroke-miterlimit:10"
           stroke-miterlimit="10"
           x1="337.358"
           y1="264.492"
           x2="480.06601"
           y2="124.997"
           id="line87" />
        <line
           style="fill:none;stroke:#a7bae0;stroke-width:0.1;stroke-miterlimit:10"
           stroke-miterlimit="10"
           x1="337.358"
           y1="264.492"
           x2="536.39502"
           y2="147.34"
           id="line89" />
        <line
           style="fill:none;stroke:#a7bae0;stroke-width:0.1;stroke-miterlimit:10"
           stroke-miterlimit="10"
           x1="337.358"
           y1="264.492"
           x2="450.76999"
           y2="489.57599"
           id="line91" />
        <line
           style="fill:none;stroke:#a7bae0;stroke-width:0.1;stroke-miterlimit:10"
           stroke-miterlimit="10"
           x1="337.358"
           y1="264.492"
           x2="553.87701"
           y2="224.22501"
           id="line93" />
        <line
           style="fill:none;stroke:#a7bae0;stroke-width:0.1;stroke-miterlimit:10"
           stroke-miterlimit="10"
           x1="337.358"
           y1="264.492"
           x2="536.12903"
           y2="229.655"
           id="line95" />
        <line
           style="fill:none;stroke:#99cccc;stroke-width:0.1;stroke-miterlimit:10"
           stroke-miterlimit="10"
           x1="337.358"
           y1="264.492"
           x2="567.70697"
           y2="274.427"
           id="line97" />
        <line
           style="fill:none;stroke:#a7bae0;stroke-width:0.1;stroke-miterlimit:10"
           stroke-miterlimit="10"
           x1="355.375"
           y1="287.58401"
           x2="556.57001"
           y2="348.82599"
           id="line99" />
        <line
           style="fill:none;stroke:#a7bae0;stroke-width:0.1;stroke-miterlimit:10"
           stroke-miterlimit="10"
           x1="355.375"
           y1="287.58401"
           x2="530.41998"
           y2="369.61499"
           id="line101" />
        <line
           style="fill:none;stroke:#a7bae0;stroke-width:0.1;stroke-miterlimit:10"
           stroke-miterlimit="10"
           x1="355.375"
           y1="287.58401"
           x2="523.15802"
           y2="421.43201"
           id="line103" />
        <line
           style="fill:none;stroke:#a7bae0;stroke-width:0.1;stroke-miterlimit:10"
           stroke-miterlimit="10"
           x1="355.375"
           y1="287.58401"
           x2="483.19699"
           y2="425.27399"
           id="line105" />
        <line
           style="fill:none;stroke:#a7bae0;stroke-width:0.1;stroke-miterlimit:10"
           stroke-miterlimit="10"
           x1="348.85001"
           y1="323.95801"
           x2="360.51901"
           y2="509"
           id="line107" />
        <line
           style="fill:none;stroke:#a7bae0;stroke-width:0.1;stroke-miterlimit:10"
           stroke-miterlimit="10"
           x1="348.85001"
           y1="323.95801"
           x2="86.547997"
           y2="369.61499"
           id="line109" />
        <line
           style="fill:none;stroke:#c5b3d7;stroke-width:0.1;stroke-miterlimit:10"
           stroke-miterlimit="10"
           x1="356.91699"
           y1="303.311"
           x2="483.19699"
           y2="425.27399"
           id="line111" />
        <line
           style="fill:none;stroke:#c5b3d7;stroke-width:0.1;stroke-miterlimit:10"
           stroke-miterlimit="10"
           x1="356.91699"
           y1="303.311"
           x2="530.41998"
           y2="369.61499"
           id="line113" />
        <line
           style="fill:none;stroke:#c5b3d7;stroke-width:0.1;stroke-miterlimit:10"
           stroke-miterlimit="10"
           x1="353.24301"
           y1="316.70599"
           x2="452.58401"
           y2="492.53"
           id="line115" />
        <line
           style="fill:none;stroke:#c5b3d7;stroke-width:0.1;stroke-miterlimit:10"
           stroke-miterlimit="10"
           x1="353.24301"
           y1="316.70599"
           x2="361.01999"
           y2="511.987"
           id="line117" />
        <circle
           style="opacity:0.5;fill:#f2644d"
           cx="580.034"
           cy="298.56601"
           r="8.6459999"
           id="circle119" />
        <circle
           style="opacity:0.5;fill:#f2644d"
           cx="536.39502"
           cy="147.339"
           r="8.6459999"
           id="circle121" />
        <path
           style="opacity:0.5;fill:#45b649"
           inkscape:connector-curvature="0"
           d="m 322.19,28.899 c 0,4.775 -3.873,8.648 -8.651,8.648 -4.775,0 -8.647,-3.873 -8.647,-8.648 0,-4.78 3.873,-8.647 8.647,-8.647 4.779,0 8.651,3.868 8.651,8.647 z"
           id="path123" />
        <path
           style="opacity:0.5;fill:#45b649"
           inkscape:connector-curvature="0"
           d="m 424.061,531.465 c 0,4.775 -3.873,8.647 -8.652,8.647 -4.774,0 -8.646,-3.872 -8.646,-8.647 0,-4.78 3.872,-8.646 8.646,-8.646 4.779,-10e-4 8.652,3.866 8.652,8.646 z"
           id="path125" />
        <path
           style="opacity:0.5;fill:#45b649"
           inkscape:connector-curvature="0"
           d="m 589.33,272.739 c 0,4.775 -3.873,8.648 -8.652,8.648 -4.773,0 -8.646,-3.873 -8.646,-8.648 0,-4.78 3.873,-8.647 8.646,-8.647 4.779,0 8.652,3.867 8.652,8.647 z"
           id="path127" />
        <path
           style="opacity:0.5;fill:#f2644d"
           inkscape:connector-curvature="0"
           d="m 352.177,47.916 c 0,4.775 -3.872,8.648 -8.651,8.648 -4.775,0 -8.647,-3.873 -8.647,-8.648 0,-4.78 3.873,-8.647 8.647,-8.647 4.779,0 8.651,3.867 8.651,8.647 z"
           id="path129" />
        <circle
           style="opacity:0.5;fill:#f2644d"
           cx="450.771"
           cy="489.57599"
           r="12.97"
           id="circle131" />
        <circle
           style="opacity:0.5;fill:#f2644d"
           cx="536.12903"
           cy="229.655"
           r="12.971"
           id="circle133" />
        <circle
           style="opacity:0.5;fill:#f2644d"
           cx="515.13898"
           cy="127.421"
           r="12.971"
           id="circle135" />
        <path
           style="opacity:0.5;fill:#45b649"
           inkscape:connector-curvature="0"
           d="m 97.115,370.726 c 0,7.162 -5.809,12.971 -12.978,12.971 -7.161,0 -12.968,-5.809 -12.968,-12.971 0,-7.171 5.808,-12.972 12.968,-12.972 7.17,0 12.978,5.801 12.978,12.972 z"
           id="path137" />
        <path
           style="opacity:0.5;fill:#45b649"
           inkscape:connector-curvature="0"
           d="m 536.131,421.434 c 0,7.161 -5.809,12.97 -12.977,12.97 -7.16,0 -12.969,-5.809 -12.969,-12.97 0,-7.172 5.809,-12.973 12.969,-12.973 7.168,0 12.977,5.801 12.977,12.973 z"
           id="path139" />
        <path
           style="opacity:0.5;fill:#45b649"
           inkscape:connector-curvature="0"
           d="m 569.543,348.827 c 0,7.161 -5.809,12.97 -12.977,12.97 -7.16,0 -12.969,-5.809 -12.969,-12.97 0,-7.172 5.809,-12.972 12.969,-12.972 7.168,0 12.977,5.8 12.977,12.972 z"
           id="path141" />
        <path
           style="opacity:0.5;fill:#45b649"
           inkscape:connector-curvature="0"
           d="m 580.68,274.427 c 0,7.163 -5.809,12.971 -12.977,12.971 -7.16,0 -12.969,-5.809 -12.969,-12.971 0,-7.171 5.809,-12.971 12.969,-12.971 7.168,0 12.977,5.8 12.977,12.971 z"
           id="path143" />
        <path
           style="opacity:0.5;fill:#45b649"
           inkscape:connector-curvature="0"
           d="m 566.85,224.225 c 0,7.163 -5.809,12.971 -12.977,12.971 -7.16,0 -12.969,-5.809 -12.969,-12.971 0,-7.171 5.809,-12.971 12.969,-12.971 7.168,0 12.977,5.8 12.977,12.971 z"
           id="path145" />
        <path
           style="opacity:0.5;fill:#f2644d"
           inkscape:connector-curvature="0"
           d="m 502.652,425.275 c 0,10.742 -8.707,19.456 -19.457,19.456 -10.748,0 -19.453,-8.714 -19.453,-19.456 0,-10.744 8.705,-19.458 19.453,-19.458 10.75,0 19.457,8.714 19.457,19.458 z"
           id="path147" />
        <path
           style="opacity:0.5;fill:#45b649"
           inkscape:connector-curvature="0"
           d="m 379.688,511.987 c 0,10.744 -8.71,19.457 -19.467,19.457 -10.741,0 -19.45,-8.713 -19.45,-19.457 0,-10.757 8.709,-19.457 19.45,-19.457 10.757,0 19.467,8.7 19.467,19.457 z"
           id="path149" />
        <path
           style="opacity:0.5;fill:#45b649"
           inkscape:connector-curvature="0"
           d="m 549.877,369.615 c 0,10.745 -8.709,19.458 -19.465,19.458 -10.742,0 -19.451,-8.713 -19.451,-19.458 0,-10.756 8.709,-19.457 19.451,-19.457 10.756,0 19.465,8.701 19.465,19.457 z"
           id="path151" />
        <path
           style="opacity:0.5;fill:#f2644d"
           inkscape:connector-curvature="0"
           d="m 499.523,124.997 c 0,10.744 -8.709,19.457 -19.467,19.457 -10.74,0 -19.449,-8.713 -19.449,-19.457 0,-10.756 8.709,-19.458 19.449,-19.458 10.758,0.001 19.467,8.702 19.467,19.458 z"
           id="path153" />
        <circle
           style="fill:#99cccc"
           cx="325.13501"
           cy="259.646"
           r="3.6010001"
           id="circle155" />
        <circle
           style="fill:#a7bae0"
           cx="337.358"
           cy="264.492"
           r="3.6010001"
           id="circle157" />
        <circle
           style="fill:#a7bae0"
           cx="355.37601"
           cy="287.58401"
           r="3.6010001"
           id="circle159" />
        <circle
           style="fill:#c5b3d7"
           cx="356.918"
           cy="303.45001"
           r="3.6010001"
           id="circle161" />
        <circle
           style="fill:#c5b3d7"
           cx="353.245"
           cy="316.70599"
           r="3.602"
           id="circle163" />
        <circle
           style="fill:#a7bae0"
           cx="348.85101"
           cy="323.95901"
           r="3.6010001"
           id="circle165" />
        <line
           style="fill:none"
           x1="355.375"
           y1="287.58401"
           x2="556.57001"
           y2="348.82599"
           id="line167" />
        <text
           style="font-size:3.80769992px;font-family:SeoulNamsanEB;fill:#ffffff"
           transform="translate(336.3389,265.7407)"
           font-size="3.8077"
           id="text169">1</text>
        <text
           style="font-size:3.80769992px;font-family:SeoulNamsanEB;fill:#ffffff"
           transform="translate(356.0107,304.7051)"
           font-size="3.8077"
           id="text171">1</text>
        <text
           style="font-size:3.80769992px;font-family:SeoulNamsanEB;fill:#ffffff"
           transform="translate(354.3867,288.8242)"
           font-size="3.8077"
           id="text173">2</text>
        <text
           style="font-size:3.80769992px;font-family:SeoulNamsanEB;fill:#ffffff"
           transform="translate(352.3418,318.0449)"
           font-size="3.8077"
           id="text175">2</text>
        <text
           style="font-size:3.80769992px;font-family:SeoulNamsanEB;fill:#ffffff"
           transform="translate(347.7607,325.3359)"
           font-size="3.8077"
           id="text177">3</text>
        <text
           style="font-size:9.33590031px;font-family:AdobeMyungjoStd-Medium-KSCpc-EUC-H;fill:#7a81a4"
           transform="matrix(0.99,0.141,-0.141,0.99,334.6094,18.4946)"
           font-size="9.3359"
           id="text179">1931</text>
        <text
           style="font-size:9.33590031px;font-family:AdobeMyungjoStd-Medium-KSCpc-EUC-H;fill:#7a81a4"
           transform="matrix(0.7002,0.714,-0.714,0.7002,501.8545,87.9893)"
           font-size="9.3359"
           id="text181">1937</text>
        <text
           style="font-size:9.33590031px;font-family:AdobeMyungjoStd-Medium-KSCpc-EUC-H;fill:#7a81a4"
           transform="matrix(0.6158,0.7879,-0.7879,0.6158,524.3828,110.1304)"
           font-size="9.3359"
           id="text183">1938</text>
        <text
           style="font-size:9.33590031px;font-family:AdobeMyungjoStd-Medium-KSCpc-EUC-H;fill:#7a81a4"
           transform="matrix(0.5326,0.8464,-0.8464,0.5326,542.5557,132.2803)"
           font-size="9.3359"
           id="text185">1939</text>
        <text
           style="font-size:9.33590031px;font-family:AdobeMyungjoStd-Medium-KSCpc-EUC-H;fill:#7a81a4"
           transform="matrix(0.261,0.9653,-0.9653,0.261,581.7891,206.1646)"
           font-size="9.3359"
           id="text187">1942</text>
        <text
           style="font-size:9.33590031px;font-family:AdobeMyungjoStd-Medium-KSCpc-EUC-H;fill:#7a81a4"
           transform="matrix(0.0593,0.9982,-0.9982,0.0593,595.2266,262.2104)"
           font-size="9.3359"
           id="text189">1944</text>
        <text
           style="font-size:9.33590031px;font-family:AdobeMyungjoStd-Medium-KSCpc-EUC-H;fill:#7a81a4"
           transform="matrix(-0.0362,0.9994,-0.9994,-0.0362,597.6182,289.0405)"
           font-size="9.3359"
           id="text191">1945</text>
        <text
           style="font-size:9.33590031px;font-family:AdobeMyungjoStd-Medium-KSCpc-EUC-H;fill:#7a81a4"
           transform="matrix(-0.2302,0.9731,-0.9731,-0.2302,594.2598,344.1699)"
           font-size="9.3359"
           id="text193">1947</text>
        <text
           style="font-size:9.33590031px;font-family:AdobeMyungjoStd-Medium-KSCpc-EUC-H;fill:#7a81a4"
           transform="matrix(-0.3521,0.936,-0.936,-0.3521,586.3643,379.1602)"
           font-size="9.3359"
           id="text195">1948</text>
        <text
           style="font-size:9.33590031px;font-family:AdobeMyungjoStd-Medium-KSCpc-EUC-H;fill:#7a81a4"
           transform="matrix(-0.5431,0.8397,-0.8397,-0.5431,563.3301,434.9707)"
           font-size="9.3359"
           id="text197">1950</text>
        <text
           style="font-size:9.33590031px;font-family:AdobeMyungjoStd-Medium-KSCpc-EUC-H;fill:#7a81a4"
           transform="matrix(-0.6334,0.7738,-0.7738,-0.6334,546.665,461.665)"
           font-size="9.3359"
           id="text199">1951</text>
        <text
           style="font-size:9.33590031px;font-family:AdobeMyungjoStd-Medium-KSCpc-EUC-H;fill:#7a81a4"
           transform="matrix(-0.8398,0.5428,-0.5428,-0.8398,486.0576,524.6523)"
           font-size="9.3359"
           id="text201">1954</text>
        <text
           style="font-size:9.33590031px;font-family:AdobeMyungjoStd-Medium-KSCpc-EUC-H;fill:#7a81a4"
           transform="matrix(-0.9357,0.3528,-0.3528,-0.9357,434.626,555.5947)"
           font-size="9.3359"
           id="text203">1956</text>
        <text
           style="font-size:9.33590031px;font-family:AdobeMyungjoStd-Medium-KSCpc-EUC-H;fill:#7a81a4"
           transform="matrix(-0.9866,0.1634,-0.1634,-0.9866,382.4653,573.8408)"
           font-size="9.3359"
           id="text205">1958</text>
        <text
           style="font-size:9.33590031px;font-family:AdobeMyungjoStd-Medium-KSCpc-EUC-H;fill:#7a81a4"
           transform="matrix(-0.2753,-0.9614,0.9614,-0.2753,48.5488,395.373)"
           font-size="9.3359"
           id="text207">1971</text>
        <text
           style="font-size:9.33590031px;font-family:AdobeMyungjoStd-Medium-KSCpc-EUC-H;fill:#7a81a4"
           transform="matrix(0.9999,0.015,-0.015,0.9999,301.7778,16.4722)"
           font-size="9.3359"
           id="text209">1994</text>
      </g>
    </g>
  </g>
</svg>
